{
  "extensions": {
    "d3": {
      "enabled": true,
      "d3_url": "https://trusted-collector-bk.tmocce.com/analytics/0.4"
    },
    "adobe": {
      "enabled": true,

      "app_id": "a18f612bc208/731354645028/launch-7cd01c1b75e6-development",

      "prism_enabled": true,
      "prism_url": "https://sprios-analytics-collector.sprintdigital.us",

      "environment": "development",

      "register_analytics_extension": true,
      "register_campaign_extension": true,
      "register_identity_extension": true,
      "register_lifecycle_extension": true,
      "register_signal_extension": true,
      "register_userprofile_extension": true,

      "share_advertising_id": true,
      "share_ip_address": false,
      "share_user_location": true,

      "track_lifecycle_metrics": true,

      "action_events": [
        {
          "campaign_id_required": true,
          "event_type": "analytics.useraction.generic_analytics_event",
          "share_condition": {
            "extensions": ["d3", "adobe"],
            "conditions": {
              "event_name": "PageView",
              "parameters": ["view_uuid"],
              "frequency": -1,
              "uuid_type": "view_uuid"
            },
            "enable": true
          }
        },
        {
          "campaign_id_required": true,
          "event_type": "analytics.useraction.generic_analytics_event",
          "share_condition": {
            "extensions": ["d3"],
            "conditions": {
              "event_name": "alertClick",
              "parameters": ["new_entry"],
              "frequency": -1,
              "uuid_type": "view_uuid"
            },
            "enable": true
          }
        },
        {
          "campaign_id_required": true,
          "event_type": "analytics.useraction.generic_analytics_event",
          "share_condition": {
            "extensions": ["d3"],
            "conditions": {
              "event_name": "pageViewStart",
              "parameters": ["page_name"],
              "frequency": -1,
              "uuid_type": "view_uuid"
            },
            "enable": true
          }
        },
        {
          "campaign_id_required": true,
          "event_type": "analytics.useraction.generic_analytics_event",
          "share_condition": {
            "extensions": ["d3"],
            "conditions": {
              "event_name": "iconClick",
              "parameters": ["action", "icon_id"],
              "frequency": -1,
              "uuid_type": "activation_uuid"
            },
            "enable": true
          }
        }
      ],
      "state_events": [
        {
          "campaign_id_required": false,
          "event_type": "analytics.useraction.generic_analytics_event",
          "share_condition": {
            "extensions": ["d3", "adobe", "google_analytics"],
            "conditions": {
              "event_name": "PageViewAdobe",
              "parameters": ["view_uuid"],
              "frequency": 1,
              "uuid_type": "view_uuid"
            },
            "enable": true
          }
        }
      ],
      "endpoint_events": [
        {
          "campaign_id_required": false,
          "event_type": "analytics.useraction.generic_analytics_event",
          "share_condition": {
            "extensions": ["adobe"],
            "conditions": {
              "event_name": "CollectPII",
              "parameters": ["abc"],
              "frequency": 1,
              "uuid_type": "activation_uuid"
            },
            "enable": true
          }
        },
        {
          "campaign_id_required": true,
          "event_type": "analytics.useraction.generic_analytics_event",
          "share_condition": {
            "extensions": ["adobe"],
            "conditions": {
              "event_name": "TrackCampaignAction",
              "parameters": ["deliveryId", "broadlogId", "action"],
              "frequency": -1,
              "uuid_type": "activation_uuid"
            },
            "enable": true
          }
        }
      ]


    },
    "google_analytics": {
      "enabled": true
    }
  },
  "event_mappings": [
    {
      "event_name": "CollectPII",
      "queue_name": "collector_asap"
    },
    {
      "event_name": "TrackCampaignAction",
      "queue_name": "collector_asap"
    },
    {
      "event_name": "PageViewAdobe",
      "queue_name": "collector_hourly"
    },
    {
      "event_name": "PageView",
      "queue_name": "collector_asap"
    },
    {
      "event_name": "*",
      "queue_name": "collector_hourly"
    }
  ],
  "queues": [
    {
      "collection_duration": 5000,
      "max_age": 36000000,
      "max_queue_length": 1000,
      "name": "collector_asap",
      "wifi_collection_duration": 5000
    },
    {
      "collection_duration": 3600000,
      "max_age": 36000000,
      "max_queue_length": 1000,
      "name": "collector_hourly",
      "wifi_collection_duration": 500
    },
    {
      "collection_duration": 86400000,
      "max_age": 36000000,
      "max_queue_length": 1000,
      "name": "collector_daily",
      "wifi_collection_duration": 5000
    },
    {
      "collection_duration": 604800000,
      "max_age": 36000000,
      "max_queue_length": 1000,
      "name": "collector_weekly",
      "wifi_collection_duration": 500
    },
    {
      "collection_duration": -1,
      "max_age": -1,
      "max_queue_length": -1,
      "name": "collector_keep"
    }
  ],
  "batch": {
    "action_events": [
      {
        "campaign_id_required": true,
        "event_type": "analytics.useraction.generic_analytics_event",
        "share_condition": {
          "extensions": ["d3", "adobe"],
          "conditions": {
            "event_name": "PageView",
            "parameters": ["view_uuid"],
            "frequency": -1,
            "uuid_type": "view_uuid"
          },
          "enable": true
        }
      },
      {
        "campaign_id_required": true,
        "event_type": "analytics.useraction.generic_analytics_event",
        "share_condition": {
          "extensions": ["d3"],
          "conditions": {
            "event_name": "alertClick",
            "parameters": ["new_entry"],
            "frequency": -1,
            "uuid_type": "view_uuid"
          },
          "enable": true
        }
      },
      {
        "campaign_id_required": true,
        "event_type": "analytics.useraction.generic_analytics_event",
        "share_condition": {
          "extensions": ["d3"],
          "conditions": {
            "event_name": "pageViewStart",
            "parameters": ["page_name"],
            "frequency": -1,
            "uuid_type": "view_uuid"
          },
          "enable": true
        }
      },
      {
        "campaign_id_required": true,
        "event_type": "analytics.useraction.generic_analytics_event",
        "share_condition": {
          "extensions": ["d3"],
          "conditions": {
            "event_name": "iconClick",
            "parameters": ["action", "icon_id"],
            "frequency": -1,
            "uuid_type": "activation_uuid"
          },
          "enable": true
        }
      }
    ],
    "state_events": [
      {
        "campaign_id_required": false,
        "event_type": "analytics.useraction.generic_analytics_event",
        "share_condition": {
          "extensions": ["d3", "adobe", "google_analytics"],
          "conditions": {
            "event_name": "PageViewAdobe",
            "parameters": ["view_uuid"],
            "frequency": 1,
            "uuid_type": "view_uuid"
          },
          "enable": true
        }
      }
    ],
    "endpoint_events": [
      {
        "campaign_id_required": false,
        "event_type": "analytics.useraction.generic_analytics_event",
        "share_condition": {
          "extensions": ["adobe"],
          "conditions": {
            "event_name": "CollectPII",
            "parameters": ["abc"],
            "frequency": 1,
            "uuid_type": "activation_uuid"
          },
          "enable": true
        }
      },
      {
        "campaign_id_required": true,
        "event_type": "analytics.useraction.generic_analytics_event",
        "share_condition": {
          "extensions": ["adobe"],
          "conditions": {
            "event_name": "TrackCampaignAction",
            "parameters": ["deliveryId", "broadlogId", "action"],
            "frequency": -1,
            "uuid_type": "activation_uuid"
          },
          "enable": true
        }
      }
    ]
  },
  "version": 1
}
